{
    "bindings": [
        {
            "type": "httpTrigger",
            "direction": "in",
            "name": "request",
            "authLevel": "anonymous",
            "methods": [
                "get"
            ]
        },
        {
            "type": "http",
            "direction": "out",
            "name": "response"
        }
    ],
    "disabled": false
}
